{
  "message":"",
  "timestamp":1582892485089,
  "result":{
    "pageSize":10,
    "pageNo":1,
    "totalCount":5701,
    "totalPage":571,
    "data":[
      {
        "key":1,
        "id":1,
        "no":"No 1",
        "description":"这是一段描述",
        "callNo":648,
        "status":1,
        "updatedAt":"1986-04-26 19:01:35",
        "editable":false
      },
      {
        "key":2,
        "id":2,
        "no":"No 2",
        "description":"这是一段描述",
        "callNo":855,
        "status":1,
        "updatedAt":"2000-07-29 20:46:02",
        "editable":false
      },
      {
        "key":3,
        "id":3,
        "no":"No 3",
        "description":"这是一段描述",
        "callNo":171,
        "status":1,
        "updatedAt":"2009-09-14 07:51:01",
        "editable":false
      },
      {
        "key":4,
        "id":4,
        "no":"No 4",
        "description":"这是一段描述",
        "callNo":594,
        "status":2,
        "updatedAt":"1986-10-15 08:10:40",
        "editable":false
      },
      {
        "key":5,
        "id":5,
        "no":"No 5",
        "description":"这是一段描述",
        "callNo":275,
        "status":3,
        "updatedAt":"2018-06-26 07:35:35",
        "editable":false
      },
      {
        "key":6,
        "id":6,
        "no":"No 6",
        "description":"这是一段描述",
        "callNo":800,
        "status":1,
        "updatedAt":"2018-11-21 10:27:14",
        "editable":false
      },
      {
        "key":7,
        "id":7,
        "no":"No 7",
        "description":"这是一段描述",
        "callNo":369,
        "status":3,
        "updatedAt":"1978-05-04 21:19:21",
        "editable":false
      },
      {
        "key":8,
        "id":8,
        "no":"No 8",
        "description":"这是一段描述",
        "callNo":988,
        "status":3,
        "updatedAt":"1976-06-04 12:58:38",
        "editable":false
      },
      {
        "key":9,
        "id":9,
        "no":"No 9",
        "description":"这是一段描述",
        "callNo":867,
        "status":3,
        "updatedAt":"1975-12-08 07:47:37",
        "editable":false
      },
      {
        "key":10,
        "id":10,
        "no":"No 10",
        "description":"这是一段描述",
        "callNo":818,
        "status":2,
        "updatedAt":"1985-12-01 04:47:04",
        "editable":false
      }
    ]
  },
  "code":0
}